presentation/waveforms/core_primes.vcd
$version Generated by VerilatedVcd $end
$timescale 1ps $end
 $scope module TOP $end
  $scope module rv32i_pkg $end
   $var wire 32 v REG_WIDTH [31:0] $end
   $var wire 7 &! OP_LUI [6:0] $end
   $var wire 7 '! OP_AUIPC [6:0] $end
   $var wire 7 (! OP_JAL [6:0] $end
   $var wire 7 )! OP_BRANCH [6:0] $end
   $var wire 7 *! OP_STORE [6:0] $end
   $var wire 7 +! OP_ALU [6:0] $end
   $var wire 7 ,! OP_JALR [6:0] $end
   $var wire 7 -! OP_LOAD [6:0] $end
   $var wire 7 .! OP_ALUI [6:0] $end
   $var wire 7 /! OP_FENCE [6:0] $end
   $var wire 7 0! OP_SYSTEM [6:0] $end
   $var wire 6 1! OP_ALU_NOP [5:0] $end
   $var wire 6 2! OP_ALU_ADD [5:0] $end
   $var wire 6 3! OP_ALU_SUB [5:0] $end
   $var wire 6 4! OP_ALU_AND [5:0] $end
   $var wire 6 5! OP_ALU_OR [5:0] $end
   $var wire 6 6! OP_ALU_XOR [5:0] $end
   $var wire 6 7! OP_ALU_SLT [5:0] $end
   $var wire 6 8! OP_ALU_SLTU [5:0] $end
   $var wire 6 9! OP_ALU_SLL [5:0] $end
   $var wire 6 :! OP_ALU_SRL [5:0] $end
   $var wire 6 ;! OP_ALU_SRA [5:0] $end
   $var wire 3 <! BRANCH_BEQ [2:0] $end
   $var wire 3 =! BRANCH_BNE [2:0] $end
   $var wire 3 >! BRANCH_BLT [2:0] $end
   $var wire 3 ?! BRANCH_BGE [2:0] $end
   $var wire 3 @! BRANCH_BLTU [2:0] $end
   $var wire 3 A! BRANCH_BGEU [2:0] $end
   $var wire 3 B! BRANCH_JAL_JALR [2:0] $end
  $upscope $end
  $var wire 1 n clk $end
  $var wire 1 o rstn $end
  $var wire 32 p out_reg [31:0] $end
  $var wire 16 q data [15:0] $end
  $var wire 16 r addr [15:0] $end
  $var wire 3 s signals [2:0] $end
  $scope module top_tb $end
   $var wire 1 n clk $end
   $var wire 1 o rstn $end
   $var wire 32 p out_reg [31:0] $end
   $var wire 16 q data [15:0] $end
   $var wire 16 r addr [15:0] $end
   $var wire 3 s signals [2:0] $end
   $scope module core_0 $end
    $var wire 1 n clk_i $end
    $var wire 1 o rstn_i $end
    $var wire 32 p reg_o [31:0] $end
    $var wire 16 r addr_o [15:0] $end
    $var wire 16 q data_o [15:0] $end
    $var wire 3 s signals_o [2:0] $end
    $var wire 1 O mem_write $end
    $var wire 4 P mem_we [3:0] $end
    $var wire 1 Q alu_src_a $end
    $var wire 1 R alu_src_b $end
    $var wire 6 S alu_op [5:0] $end
    $var wire 1 T branch_en $end
    $var wire 1 U branch $end
    $var wire 3 V branch_op [2:0] $end
    $var wire 7 F op [6:0] $end
    $var wire 2 W result_mux [1:0] $end
    $var wire 1 X reg_write $end
    $var wire 1 Y read_inst $end
    $var wire 3 G funct3 [2:0] $end
    $var wire 32 Z alu_result [31:0] $end
    $var wire 32 [ rs1 [31:0] $end
    $var wire 32 \ rs2 [31:0] $end
    $var wire 5 ] rs1_addr [4:0] $end
    $var wire 5 H rs2_addr [4:0] $end
    $var wire 5 I rd_addr [4:0] $end
    $var wire 32 ^ result [31:0] $end
    $var wire 32 _ res_mux_d[0] [31:0] $end
    $var wire 32 ` res_mux_d[1] [31:0] $end
    $var wire 32 a res_mux_d[2] [31:0] $end
    $var wire 32 J imm [31:0] $end
    $var wire 32 b pc [31:0] $end
    $var wire 32 c pc_next [31:0] $end
    $var wire 32 d pc_update [31:0] $end
    $var wire 32 # pc_last [31:0] $end
    $var wire 32 K inst [31:0] $end
    $var wire 32 L inst_mem [31:0] $end
    $var wire 32 t mem_raw [31:0] $end
    $var wire 32 e mem_ext [31:0] $end
    $var wire 1 f pc_en $end
    $var wire 32 g rs2_store [31:0] $end
    $var wire 1 h mem_sel_io $end
    $var wire 32 $ out_reg [31:0] $end
    $scope module alu_0 $end
     $var wire 6 S op_i [5:0] $end
     $var wire 32 i a_i [31:0] $end
     $var wire 32 j b_i [31:0] $end
     $var wire 32 Z res_o [31:0] $end
    $upscope $end
    $scope module branch_unit_0 $end
     $var wire 3 V op_i [2:0] $end
     $var wire 1 T branch $end
     $var wire 32 [ a_i [31:0] $end
     $var wire 32 \ b_i [31:0] $end
     $var wire 1 U branch_o $end
    $upscope $end
    $scope module controller_0 $end
     $var wire 1 n clk_i $end
     $var wire 1 o rstn_i $end
     $var wire 32 L inst_i [31:0] $end
     $var wire 3 G funct3_o [2:0] $end
     $var wire 32 K inst_o [31:0] $end
     $var wire 1 Y read_inst $end
     $var wire 1 f pc_en_o $end
     $var wire 7 F op_o [6:0] $end
     $var wire 1 T branch_o $end
     $var wire 2 W result_mux_o [1:0] $end
     $var wire 3 V branch_op_o [2:0] $end
     $var wire 1 O mem_write_o $end
     $var wire 1 Q alu_src_a_o $end
     $var wire 1 R alu_src_b_o $end
     $var wire 1 X reg_write_o $end
     $var wire 6 S alu_op_o [5:0] $end
     $var wire 5 ] rs1_addr_o [4:0] $end
     $var wire 5 H rs2_addr_o [4:0] $end
     $var wire 5 I rd_addr_o [4:0] $end
     $var wire 3 k cur_state [2:0] $end
     $var wire 3 l nxt_state [2:0] $end
     $var wire 32 K inst [31:0] $end
     $var wire 7 F op [6:0] $end
     $var wire 3 M funct3 [2:0] $end
     $var wire 3 G funct3_reg [2:0] $end
     $var wire 7 N funct7 [6:0] $end
    $upscope $end
    $scope module data_mem_0 $end
     $var wire 32 v WIDTH [31:0] $end
     $var wire 32 w DEPTH [31:0] $end
     $var wire 320 x INIT_FILE [319:0] $end
     $var wire 1 n clka $end
     $var wire 4 P wea [3:0] $end
     $var wire 32 Z addra [31:0] $end
     $var wire 32 g dina [31:0] $end
     $var wire 1 n clkb $end
     $var wire 1 $! enb $end
     $var wire 32 b addrb [31:0] $end
     $var wire 32 L doutb [31:0] $end
     $var wire 32 t douta [31:0] $end
     $scope module unnamedblk1 $end
      $var wire 32 u i [31:0] $end
     $upscope $end
    $upscope $end
    $scope module mem_ext_unit_0 $end
     $var wire 3 G op_i [2:0] $end
     $var wire 32 t d_i [31:0] $end
     $var wire 2 m addr_i [1:0] $end
     $var wire 32 e d_o [31:0] $end
    $upscope $end
    $scope module mem_store_unit_0 $end
     $var wire 3 G op_i [2:0] $end
     $var wire 32 \ d_i [31:0] $end
     $var wire 2 m addr_i [1:0] $end
     $var wire 1 O we_i $end
     $var wire 4 P we_o [3:0] $end
     $var wire 32 g d_o [31:0] $end
    $upscope $end
    $scope module rf_0 $end
     $var wire 32 v WIDTH [31:0] $end
     $var wire 32 v DEPTH [31:0] $end
     $var wire 1 n clk_i $end
     $var wire 1 o rstn_i $end
     $var wire 1 $! chip_en_i $end
     $var wire 1 X we_i $end
     $var wire 32 ^ data_i [31:0] $end
     $var wire 5 I rd_addr_i [4:0] $end
     $var wire 5 ] rs1_addr_i [4:0] $end
     $var wire 5 H rs2_addr_i [4:0] $end
     $var wire 32 [ rs1_o [31:0] $end
     $var wire 32 \ rs2_o [31:0] $end
     $var wire 32 % regs[0] [31:0] $end
     $var wire 32 & regs[1] [31:0] $end
     $var wire 32 ' regs[2] [31:0] $end
     $var wire 32 ( regs[3] [31:0] $end
     $var wire 32 ) regs[4] [31:0] $end
     $var wire 32 * regs[5] [31:0] $end
     $var wire 32 + regs[6] [31:0] $end
     $var wire 32 , regs[7] [31:0] $end
     $var wire 32 - regs[8] [31:0] $end
     $var wire 32 . regs[9] [31:0] $end
     $var wire 32 / regs[10] [31:0] $end
     $var wire 32 0 regs[11] [31:0] $end
     $var wire 32 1 regs[12] [31:0] $end
     $var wire 32 2 regs[13] [31:0] $end
     $var wire 32 3 regs[14] [31:0] $end
     $var wire 32 4 regs[15] [31:0] $end
     $var wire 32 5 regs[16] [31:0] $end
     $var wire 32 6 regs[17] [31:0] $end
     $var wire 32 7 regs[18] [31:0] $end
     $var wire 32 8 regs[19] [31:0] $end
     $var wire 32 9 regs[20] [31:0] $end
     $var wire 32 : regs[21] [31:0] $end
     $var wire 32 ; regs[22] [31:0] $end
     $var wire 32 < regs[23] [31:0] $end
     $var wire 32 = regs[24] [31:0] $end
     $var wire 32 > regs[25] [31:0] $end
     $var wire 32 ? regs[26] [31:0] $end
     $var wire 32 @ regs[27] [31:0] $end
     $var wire 32 A regs[28] [31:0] $end
     $var wire 32 B regs[29] [31:0] $end
     $var wire 32 C regs[30] [31:0] $end
     $var wire 32 D regs[31] [31:0] $end
     $var wire 32 [ mux_out_1 [31:0] $end
     $var wire 32 \ mux_out_2 [31:0] $end
     $scope module mux_0 $end
      $var wire 32 v BitWidth [31:0] $end
      $var wire 32 v N [31:0] $end
      $var wire 32 %! SelWidth [31:0] $end
      $var wire 32 % d_i[0] [31:0] $end
      $var wire 32 & d_i[1] [31:0] $end
      $var wire 32 ' d_i[2] [31:0] $end
      $var wire 32 ( d_i[3] [31:0] $end
      $var wire 32 ) d_i[4] [31:0] $end
      $var wire 32 * d_i[5] [31:0] $end
      $var wire 32 + d_i[6] [31:0] $end
      $var wire 32 , d_i[7] [31:0] $end
      $var wire 32 - d_i[8] [31:0] $end
      $var wire 32 . d_i[9] [31:0] $end
      $var wire 32 / d_i[10] [31:0] $end
      $var wire 32 0 d_i[11] [31:0] $end
      $var wire 32 1 d_i[12] [31:0] $end
      $var wire 32 2 d_i[13] [31:0] $end
      $var wire 32 3 d_i[14] [31:0] $end
      $var wire 32 4 d_i[15] [31:0] $end
      $var wire 32 5 d_i[16] [31:0] $end
      $var wire 32 6 d_i[17] [31:0] $end
      $var wire 32 7 d_i[18] [31:0] $end
      $var wire 32 8 d_i[19] [31:0] $end
      $var wire 32 9 d_i[20] [31:0] $end
      $var wire 32 : d_i[21] [31:0] $end
      $var wire 32 ; d_i[22] [31:0] $end
      $var wire 32 < d_i[23] [31:0] $end
      $var wire 32 = d_i[24] [31:0] $end
      $var wire 32 > d_i[25] [31:0] $end
      $var wire 32 ? d_i[26] [31:0] $end
      $var wire 32 @ d_i[27] [31:0] $end
      $var wire 32 A d_i[28] [31:0] $end
      $var wire 32 B d_i[29] [31:0] $end
      $var wire 32 C d_i[30] [31:0] $end
      $var wire 32 D d_i[31] [31:0] $end
      $var wire 5 ] sel_i [4:0] $end
      $var wire 32 [ d_o [31:0] $end
     $upscope $end
     $scope module mux_1 $end
      $var wire 32 v BitWidth [31:0] $end
      $var wire 32 v N [31:0] $end
      $var wire 32 %! SelWidth [31:0] $end
      $var wire 32 % d_i[0] [31:0] $end
      $var wire 32 & d_i[1] [31:0] $end
      $var wire 32 ' d_i[2] [31:0] $end
      $var wire 32 ( d_i[3] [31:0] $end
      $var wire 32 ) d_i[4] [31:0] $end
      $var wire 32 * d_i[5] [31:0] $end
      $var wire 32 + d_i[6] [31:0] $end
      $var wire 32 , d_i[7] [31:0] $end
      $var wire 32 - d_i[8] [31:0] $end
      $var wire 32 . d_i[9] [31:0] $end
      $var wire 32 / d_i[10] [31:0] $end
      $var wire 32 0 d_i[11] [31:0] $end
      $var wire 32 1 d_i[12] [31:0] $end
      $var wire 32 2 d_i[13] [31:0] $end
      $var wire 32 3 d_i[14] [31:0] $end
      $var wire 32 4 d_i[15] [31:0] $end
      $var wire 32 5 d_i[16] [31:0] $end
      $var wire 32 6 d_i[17] [31:0] $end
      $var wire 32 7 d_i[18] [31:0] $end
      $var wire 32 8 d_i[19] [31:0] $end
      $var wire 32 9 d_i[20] [31:0] $end
      $var wire 32 : d_i[21] [31:0] $end
      $var wire 32 ; d_i[22] [31:0] $end
      $var wire 32 < d_i[23] [31:0] $end
      $var wire 32 = d_i[24] [31:0] $end
      $var wire 32 > d_i[25] [31:0] $end
      $var wire 32 ? d_i[26] [31:0] $end
      $var wire 32 @ d_i[27] [31:0] $end
      $var wire 32 A d_i[28] [31:0] $end
      $var wire 32 B d_i[29] [31:0] $end
      $var wire 32 C d_i[30] [31:0] $end
      $var wire 32 D d_i[31] [31:0] $end
      $var wire 5 H sel_i [4:0] $end
      $var wire 32 \ d_o [31:0] $end
     $upscope $end
     $scope module write_ff $end
      $scope module unnamedblk1 $end
       $var wire 32 E i [31:0] $end
      $upscope $end
     $upscope $end
    $upscope $end
    $scope module sign_ext_unit_0 $end
     $var wire 32 K inst_i [31:0] $end
     $var wire 7 F op_i [6:0] $end
     $var wire 32 J imm_ext_o [31:0] $end
    $upscope $end
   $upscope $end
  $upscope $end
 $upscope $end
$enddefinitions $end


#0
b00000001110010001011101100011101 #
b01100000011000101011111001101111 $
b00011111111111111011001100000101 %
b00100000101110001001010111010111 &
b00101111110110100000010010001001 '
b11011010110010000100001011110110 (
b10000110010110001001111110101111 )
b10000000111110011111010111101111 *
b01011011111000000010011110011101 +
b10010100111111100100001100111111 ,
b11011011000111001100111011001111 -
b00001111011101011110001100101010 .
b00001001000101001110001101110111 /
b01001011100101001001101010011010 0
b01011001000001101000011100001011 1
b00100100100011000001111101010011 2
b00011011011110000100001010101111 3
b10001000111100111011100110001100 4
b00010001110110101011001100000010 5
b11001010100101110010101111111011 6
b10011111001000000001010111101000 7
b10010000000011111101100111000010 8
b01101110011011011100110111011101 9
b01000011011010000100000111001000 :
b10010011011010001101100001100100 ;
b00001001011101101010011001100001 <
b10100001100100010011101011100101 =
b00000101111010011101110100100001 >
b10010000110000000010011111110011 ?
b01101101011100010000010001011001 @
b00000010011010010001100011110101 A
b10011100000100000001011010111101 B
b01000000101101000001101101111110 C
b01010111101010100010011001100010 D
b00000000000000000000000000000000 E
b0101101 F
b101 G
b11011 H
b11111 I
b00000000000000000000000000000000 J
b00111001101111000111111110101101 K
b11000001000110110000111100100010 L
b111 M
b0011100 N
0O
b0000 P
0Q
0R
b011001 S
0T
0U
b000 V
b00 W
0X
0Y
b00001111000000100011111100111110 Z
b10100001100100010011101011100101 [
b01101101011100010000010001011001 \
b11000 ]
b00001111000000100011111100111110 ^
b01011010010100001110110101100011 _
b00000000000000001110111110010011 `
b00001111000000100011111100111110 a
b01011010010100001110110101100011 b
b01011010010100001110110101100111 c
b01011010010100001110110101100111 d
b00000000000000001110111110010011 e
0f
b01101101011100010000010001011001 g
0h
b10100001100100010011101011100101 i
b01101101011100010000010001011001 j
b101 k
b000 l
b10 m
0n
0o
b01100000011000101011111001101111 p
b0000010001011001 q
b0011111100111110 r
b000 s
b11101111100100111000111100000110 t
b00000000000000000000000000000000 u
b00000000000000000000000000100000 v
b00000000000000000100000000000000 w
b00101110001011100010111101110000011100100110111101100111011100100110000101101101011100110010111101101110011011110111001101110100011001000110110001101001011000100010111101100011011011110110110101110000011010010110110001100101011001000010111101110000011100100110100101101101011001010111001100101110011010000110010101111000 x
1$!
b00000000000000000000000000000101 %!
b0110111 &!
b0010111 '!
b1101111 (!
b1100011 )!
b0100011 *!
b0110011 +!
b1100111 ,!
b0000011 -!
b0010011 .!
b0001111 /!
b1110011 0!
b000000 1!
b011001 2!
b011011 3!
b011101 4!
b011111 5!
b100001 6!
b100011 7!
b100101 8!
b100111 9!
b101001 :!
b101011 ;!
b000 <!
b001 =!
b100 >!
b101 ?!
b110 @!
b111 A!
b010 B!
#10
b00000000000000000000000000000000 #
b00000000000000000000000000000000 $
b00000000000000000000000000000000 %
b00000000000000000000000000000000 &
b00000000000000000000000000000000 '
b00000000000000000000000000000000 (
b00000000000000000000000000000000 )
b00000000000000000000000000000000 *
b00000000000000000000000000000000 +
b00000000000000000000000000000000 ,
b00000000000000000000000000000000 -
b00000000000000000000000000000000 .
b00000000000000000000000000000000 /
b00000000000000000000000000000000 0
b00000000000000000000000000000000 1
b00000000000000000000000000000000 2
b00000000000000000000000000000000 3
b00000000000000000000000000000000 4
b00000000000000000000000000000000 5
b00000000000000000000000000000000 6
b00000000000000000000000000000000 7
b00000000000000000000000000000000 8
b00000000000000000000000000000000 9
b00000000000000000000000000000000 :
b00000000000000000000000000000000 ;
b00000000000000000000000000000000 <
b00000000000000000000000000000000 =
b00000000000000000000000000000000 >
b00000000000000000000000000000000 ?
b00000000000000000000000000000000 @
b00000000000000000000000000000000 A
b00000000000000000000000000000000 B
b00000000000000000000000000000000 C
b00000000000000000000000000000000 D
b00000000000000000000000000100000 E
b10011010000101010111111010010100 L
1Y
b00000000000000000000000000000000 Z
b00000000000000000000000000000000 [
b00000000000000000000000000000000 \
b00000000000000000000000000000000 ^
b00000000000000000000000000000000 _
b00000000000000000100010001110111 `
b00000000000000000000000000000000 a
b00000000000000000000000000000000 b
b00000000000000000000000000000100 c
b00000000000000000000000000000100 d
b00000000000000000100010001110111 e
b00000000000000000000000000000000 g
b00000000000000000000000000000000 i
b00000000000000000000000000000000 j
b000 k
b001 l
b00 m
1n
b00000000000000000000000000000000 p
b0000000000000000 q
b0000000000000000 r
b00101011000110110100010001110111 t
#15
0n
#20
b0010100 F
b111 G
b00001 H
b11101 I
b10011010000101010111111010010100 K
b00000000000000010000000100010111 L
b1001101 N
b01010 ]
b00000000000000010000000100010111 `
b00000000000000010000000100010111 e
1n
b00000000000000010000000100010111 t
#25
0n
#30
b0010111 F
b000 G
b00000 H
b00010 I
b00000000000000010000000000000000 J
b00000000000000010000000100010111 K
b000 M
b0000000 N
b00010 ]
b00000000000000000000000000010111 `
b00000000000000000000000000010111 e
1n
#35
0n
1o
#40
1Q
1R
1X
0Y
b00000000000000010000000000000000 Z
b00000000000000010000000000000000 ^
b00000000000000010000000000000000 a
1f
1h
b00000000000000010000000000000000 j
b001 k
b000 l
1n
b010 s
#45
0n
#50
b00000000000000010000000000000000 '
0Q
0R
0X
1Y
b00000000000000010000000000000000 [
b00000000000000000000000000000100 _
b00000000000000000000000000000100 b
b00000000000000000000000000001000 c
b00000000000000000000000000001000 d
0f
b00000000000000010000000000000000 i
b00000000000000000000000000000000 j
b000 k
b001 l
1n
b000 s
#55
0n
#60
b00000000000000010000000100010011 L
1Q
1R
1X
0Y
1f
b00000000000000000000000000000000 i
b00000000000000010000000000000000 j
b001 k
b000 l
1n
b010 s
#65
0n
#70
b00000000000000000000000000000100 #
0Q
0R
0X
1Y
b00000000000000000000000000001000 _
b00000000000000000000000000001000 b
b00000000000000000000000000001100 c
b00000000000000000000000000001100 d
0f
b00000000000000010000000000000000 i
b00000000000000000000000000000000 j
b000 k
b001 l
1n
b000 s
#75
0n
#80
b0010011 F
b00000000000000000000000000000000 J
b00000000000000010000000100010011 K
b00000000000000000000000010010011 L
1R
1X
0Y
1f
b001 k
b000 l
1n
b010 s
#85
0n
#90
b00000000000000000000000000001000 #
0R
0X
1Y
b00000000000000000000000000001100 _
b00000000000000000000000000001100 b
b00000000000000000000000000010000 c
b00000000000000000000000000010000 d
0f
b000 k
b001 l
1n
b000 s
#95
0n
#100
b00001 I
b00000000000000000000000010010011 K
b00000000000000000000010000010011 L
1R
1X
0Y
b00000000000000000000000000000000 Z
b00000000000000000000000000000000 [
b00000 ]
b00000000000000000000000000000000 ^
b00000000000000000000000000000000 a
1f
0h
b00000000000000000000000000000000 i
b001 k
b000 l
1n
b010 s
#105
0n
#110
b00000000000000000000000000001100 #
0R
0X
1Y
b00000000000000000000000000010000 _
b00000000000000000000000000010000 b
b00000000000000000000000000010100 c
b00000000000000000000000000010100 d
0f
b000 k
b001 l
1n
b000 s
#115
0n
#120
b01000 I
b00000000000000000000010000010011 K
b00000000000000000000010010010011 L
1R
1X
0Y
1f
b001 k
b000 l
1n
b010 s
#125
0n
#130
b00000000000000000000000000010000 #
0R
0X
1Y
b00000000000000000000000000010100 _
b00000000000000000000000000010100 b
b00000000000000000000000000011000 c
b00000000000000000000000000011000 d
0f
b000 k
b001 l
1n
b000 s
#135
0n
#140
b01001 I
b00000000000000000000010010010011 K
b00000000000000000000100100010011 L
1R
1X
0Y
1f
b001 k
b000 l
1n
b010 s
#145
0n
#150
b00000000000000000000000000010100 #
0R
0X
1Y
b00000000000000000000000000011000 _
b00000000000000000000000000011000 b
b00000000000000000000000000011100 c
b00000000000000000000000000011100 d
0f
b000 k
b001 l
1n
b000 s
#155
0n
#160
b10010 I
b00000000000000000000100100010011 K
b00000000000000000000000110010011 L
1R
1X
0Y
1f
b001 k
b000 l
1n
b010 s
#165
0n
#170
b00000000000000000000000000011000 #
0R
0X
1Y
b00000000000000000000000000011100 _
b00000000000000000000000000011100 b
b00000000000000000000000000100000 c
b00000000000000000000000000100000 d
0f
b000 k
b001 l
1n
b000 s
#175
0n
#180
b00011 I
b00000000000000000000000110010011 K
b00000000000000000000001000010011 L
1R
1X
0Y
1f
b001 k
b000 l
1n
b010 s
#185
0n
#190
b00000000000000000000000000011100 #
0R
0X
1Y
b00000000000000000000000000100000 _
b00000000000000000000000000100000 b
b00000000000000000000000000100100 c
b00000000000000000000000000100100 d
0f
b000 k
b001 l
1n
b000 s
#195
0n
#200
b00100 I
b00000000000000000000001000010011 K
b00000000000000001000010100010111 L
1R
1X
0Y
1f
b001 k
b000 l
1n
b010 s
#205
0n
#210
b00000000000000000000000000100000 #
0R
0X
1Y
b00000000000000000000000000100100 _
b00000000000000000000000000100100 b
b00000000000000000000000000101000 c
b00000000000000000000000000101000 d
0f
b000 k
b001 l
1n
b000 s
#215
0n
#220
b0010111 F
b01010 I
b00000000000000001000000000000000 J
b00000000000000001000010100010111 K
b11111110000001010000010100010011 L
1Q
1R
1X
0Y
b00000000000000001000000000100000 Z
b00001 ]
b00000000000000001000000000100000 ^
b00000000000000001000000000100000 a
1f
b00000000000000000000000000100000 i
b00000000000000001000000000000000 j
b001 k
b000 l
1n
b1000000000100000 r
b010 s
#225
0n
#230
b00000000000000000000000000100100 #
b00000000000000001000000000100000 /
0Q
0R
0X
1Y
b00000000000000000000000000000000 Z
b00000000000000000000000000000000 ^
b00000000000000000000000000101000 _
b11111111111111111111111110001011 `
b00000000000000000000000000000000 a
b00000000000000000000000000101000 b
b00000000000000000000000000101100 c
b00000000000000000000000000101100 d
b11111111111111111111111110001011 e
0f
b00000000000000000000000000000000 i
b00000000000000000000000000000000 j
b000 k
b001 l
1n
b0000000000000000 r
b000 s
b11100001010010100101010110001011 t
#235
0n
#240
b0010011 F
b11111111111111111111111111100000 J
b11111110000001010000010100010011 K
b00101010100000000000010110010011 L
b1111111 N
1R
1X
0Y
b00000000000000001000000000000000 Z
b00000000000000001000000000100000 [
b01010 ]
b00000000000000001000000000000000 ^
b00000000000000000000000000010111 `
b00000000000000001000000000000000 a
b00000000000000000000000000010111 e
1f
b00000000000000001000000000100000 i
b11111111111111111111111111100000 j
b001 k
b000 l
1n
b1000000000000000 r
b010 s
b00000000000000010000000100010111 t
#245
0n
#250
b00000000000000000000000000101000 #
b00000000000000001000000000000000 /
0R
0X
1Y
b00000000000000001000000000000000 [
b00000000000000000000000000101100 _
b00000000000000000000000001010110 `
b00000000000000000000000000101100 b
b00000000000000000000000000110000 c
b00000000000000000000000000110000 d
b00000000000000000000000001010110 e
0f
b00000000000000001000000000000000 i
b00000000000000000000000000000000 j
b000 k
b001 l
1n
b000 s
b11100000010111111101001101010110 t
#255
0n
#260
b01000 H
b01011 I
b00000000000000000000001010101000 J
b00101010100000000000010110010011 K
b00000000000000001000011000010111 L
b0010101 N
1R
1X
0Y
b00000000000000000000001010101000 Z
b00000000000000000000000000000000 [
b00000 ]
b00000000000000000000001010101000 ^
b00000000000000000000001010101000 a
1f
b00000000000000000000000000000000 i
b00000000000000000000001010101000 j
b001 k
b000 l
1n
b0000001010101000 r
b010 s
#265
0n
#270
b00000000000000000000000000101100 #
b00000000000000000000001010101000 0
0R
0X
1Y
b00000000000000000000000000000000 Z
b00000000000000000000000000000000 ^
b00000000000000000000000000110000 _
b00000000000000000000000000000000 `
b00000000000000000000000000000000 a
b00000000000000000000000000110000 b
b00000000000000000000000000110100 c
b00000000000000000000000000110100 d
b00000000000000000000000000000000 e
0f
b00000000000000000000000000000000 j
b000 k
b001 l
1n
b0000000000000000 r
b000 s
b00000000000000010000000000000000 t
#275
0n
#280
b0010111 F
b00000 H
b01100 I
b00000000000000001000000000000000 J
b00000000000000001000011000010111 K
b11111101100001100000011000010011 L
b0000000 N
1Q
1R
1X
0Y
b00000000000000001000000000101100 Z
b00001 ]
b00000000000000001000000000101100 ^
b00000000000000000000000000010111 `
b00000000000000001000000000101100 a
b00000000000000000000000000010111 e
1f
b00000000000000000000000000101100 i
b00000000000000001000000000000000 j
b001 k
b000 l
1n
b1000000000101100 r
b010 s
b00000000000000010000000100010111 t
#285
0n
#290
b00000000000000000000000000110000 #
b00000000000000001000000000101100 1
0Q
0R
0X
1Y
b00000000000000000000000000000000 Z
b00000000000000000000000000000000 ^
b00000000000000000000000000110100 _
b11111111111111111111111110000100 `
b00000000000000000000000000000000 a
b00000000000000000000000000110100 b
b00000000000000000000000000111000 c
b00000000000000000000000000111000 d
b11111111111111111111111110000100 e
0f
b00000000000000000000000000000000 i
b00000000000000000000000000000000 j
b000 k
b001 l
1n
b0000000000000000 r
b000 s
b11100000010000111001001010000100 t
#295
0n
#300
b0010011 F
b11000 H
b11111111111111111111111111011000 J
b11111101100001100000011000010011 K
b00000000110001010101110001100011 L
b1111110 N
1R
1X
0Y
b00000000000000001000000000000100 Z
b00000000000000001000000000101100 [
b01100 ]
b00000000000000001000000000000100 ^
b00000000000000000000000000010111 `
b00000000000000001000000000000100 a
b00000000000000000000000000010111 e
1f
b00000000000000001000000000101100 i
b11111111111111111111111111011000 j
b001 k
b000 l
1n
b1000000000000100 r
b010 s
b00000000000000010000000100010111 t
#305
0n
#310
b00000000000000000000000000110100 #
b00000000000000001000000000000100 1
0R
0X
1Y
b00000000000000001000000000000100 [
b00000000000000000000000000111000 _
b00000000000000000000000001011111 `
b00000000000000000000000000111000 b
b00000000000000000000000000111100 c
b00000000000000000000000000111100 d
b00000000000000000000000001011111 e
0f
b00000000000000001000000000000100 i
b00000000000000000000000000000000 j
b000 k
b001 l
1n
b000 s
b01110101110111000001110101011111 t
#315
0n
#320
b1100011 F
b101 G
b01100 H
b11000 I
b00000000000000000000000000011000 J
b00000000110001010101110001100011 K
b00000000000001011010001010000011 L
b101 M
b0000000 N
1Q
1R
1T
b101 V
0Y
b00000000000000000000000001001100 Z
b00000000000000001000000000000000 [
b00000000000000001000000000000100 \
b01010 ]
b00000000000000000000000001001100 ^
b00000000000000000001110101011111 `
b00000000000000000000000001001100 a
b00000000000000000001110101011111 e
1f
b00000000000000001000000000000100 g
b00000000000000000000000000110100 i
b00000000000000000000000000011000 j
b001 k
b000 l
1n
b1000000000000100 q
b0000000001001100 r
#325
0n
#330
b00000000000000000000000000111000 #
0Q
0R
0T
b000 V
1Y
b00000000000000010000000000000100 Z
b00000000000000010000000000000100 ^
b00000000000000000000000000111100 _
b00000000000000001000010100010111 `
b00000000000000010000000000000100 a
b00000000000000000000000000111100 b
b00000000000000000000000001000000 c
b00000000000000000000000001000000 d
b00000000000000001000010100010111 e
0f
b00000000000000001000000000000000 i
b00000000000000001000000000000100 j
b000 k
b001 l
1n
b0000000000000100 r
b00000000000000001000010100010111 t
#335
0n
#340
b0000011 F
b010 G
b00000 H
b00101 I
b00000000000000000000000000000000 J
b00000000000001011010001010000011 K
b00000000010101010010000000100011 L
b010 M
1R
b10 W
0Y
b00000000000000000000001010101000 Z
b00000000000000000000001010101000 [
b00000000000000000000000000000000 \
b01011 ]
b00000000000000010000000100010011 ^
b00000000000000010000000100010011 `
b00000000000000000000001010101000 a
b00000000000000010000000100010011 e
b00000000000000000000000000000000 g
b00000000000000000000001010101000 i
b00000000000000000000000000000000 j
b001 k
b010 l
1n
b0000000000000000 q
b0000001010101000 r
b00000000000000010000000100010011 t
#345
0n
#350
1X
b00000000000000010000000000000000 ^
b00000000000000010000000000000000 `
b00000000000000010000000000000000 e
1f
b010 k
b000 l
1n
b010 s
b00000000000000010000000000000000 t
#355
0n
#360
b00000000000000000000000000111100 #
b00000000000000010000000000000000 *
0R
b00 W
0X
1Y
b00000000000000000000001010101000 ^
b00000000000000000000000001000000 _
b00000000000000000000000001000000 b
b00000000000000000000000001000100 c
b00000000000000000000000001000100 d
0f
b000 k
b001 l
1n
b000 s
#365
0n
#370
b0100011 F
b00101 H
b00000 I
b00000000010101010010000000100011 K
b00000000010001010000010100010011 L
1O
b1111 P
1R
0Y
b00000000000000001000000000000000 Z
b00000000000000001000000000000000 [
b00000000000000010000000000000000 \
b01010 ]
b00000000000000001000000000000000 ^
b00000000000000001000000000000000 a
1f
b00000000000000010000000000000000 g
b00000000000000001000000000000000 i
b001 k
b000 l
1n
b1000000000000000 r
b100 s
#375
0n
#380
b00000000000000000000000001000000 #
0O
b0000 P
0R
1Y
b00000000000000011000000000000000 Z
b00000000000000011000000000000000 ^
b00000000000000000000000001000100 _
b11100000010111111101001101010110 `
b00000000000000011000000000000000 a
b00000000000000000000000001000100 b
b00000000000000000000000001001000 c
b00000000000000000000000001001000 d
b11100000010111111101001101010110 e
0f
b00000000000000010000000000000000 j
b000 k
b001 l
1n
b000 s
b11100000010111111101001101010110 t
b00000000000000000000000000000100 u
#385
0n
#390
b0010011 F
b000 G
b00100 H
b01010 I
b00000000000000000000000000000100 J
b00000000010001010000010100010011 K
b00000000010001011000010110010011 L
b000 M
1R
1X
0Y
b00000000000000001000000000000100 Z
b00000000000000000000000000000000 \
b00000000000000001000000000000100 ^
b00000000000000000000000000000000 `
b00000000000000001000000000000100 a
b00000000000000000000000000000000 e
1f
b00000000000000000000000000000000 g
b00000000000000000000000000000100 j
b001 k
b000 l
1n
b1000000000000100 r
b010 s
b00000000000000010000000000000000 t
#395
0n
