presentation/waveforms/rf.vcd
$version Generated by VerilatedVcd $end
$timescale 1ps $end
 $scope module TOP $end
  $var wire 1 # clk $end
  $var wire 1 $ rst_n $end
  $var wire 8 % data_in [7:0] $end
  $var wire 8 & read_addr_1 [7:0] $end
  $var wire 8 ' read_addr_2 [7:0] $end
  $var wire 8 ( write_addr [7:0] $end
  $var wire 1 ) write_en_n $end
  $var wire 1 * chip_en $end
  $var wire 8 + data_out_1 [7:0] $end
  $var wire 8 , data_out_2 [7:0] $end
  $scope module top $end
   $var wire 1 # clk $end
   $var wire 1 $ rst_n $end
   $var wire 8 % data_in [7:0] $end
   $var wire 8 & read_addr_1 [7:0] $end
   $var wire 8 ' read_addr_2 [7:0] $end
   $var wire 8 ( write_addr [7:0] $end
   $var wire 1 ) write_en_n $end
   $var wire 1 * chip_en $end
   $var wire 8 + data_out_1 [7:0] $end
   $var wire 8 , data_out_2 [7:0] $end
   $scope module rf_0 $end
    $var wire 32 0 BW [31:0] $end
    $var wire 32 1 DEPTH [31:0] $end
    $var wire 1 # clk $end
    $var wire 1 $ rst_n $end
    $var wire 8 % data_in [7:0] $end
    $var wire 8 & read_addr_1 [7:0] $end
    $var wire 8 ' read_addr_2 [7:0] $end
    $var wire 8 ( write_addr [7:0] $end
    $var wire 1 ) write_en_n $end
    $var wire 1 * chip_en $end
    $var wire 8 + data_out_1 [7:0] $end
    $var wire 8 , data_out_2 [7:0] $end
    $var wire 8 - mux_out_1 [7:0] $end
    $var wire 8 . mux_out_2 [7:0] $end
    $scope module mux_0 $end
     $var wire 32 0 BitWidth [31:0] $end
     $var wire 32 1 N [31:0] $end
     $var wire 32 0 SelWidth [31:0] $end
     $var wire 8 & sel_i [7:0] $end
     $var wire 8 - d_o [7:0] $end
    $upscope $end
    $scope module mux_1 $end
     $var wire 32 0 BitWidth [31:0] $end
     $var wire 32 1 N [31:0] $end
     $var wire 32 0 SelWidth [31:0] $end
     $var wire 8 ' sel_i [7:0] $end
     $var wire 8 . d_o [7:0] $end
    $upscope $end
    $scope module write_ff $end
     $scope module unnamedblk1 $end
      $var wire 32 / i [31:0] $end
     $upscope $end
    $upscope $end
   $upscope $end
  $upscope $end
 $upscope $end
$enddefinitions $end


#0
0#
0$
b00000000 %
b00000000 &
b00000000 '
b00000000 (
0)
0*
b00000000 +
b00000000 ,
b00111011 -
b00111011 .
b00000000000000000000000000000000 /
b00000000000000000000000000001000 0
b00000000000000000000000100000000 1
#10
1#
b00000000 -
b00000000 .
b00000000000000000000000100000000 /
#15
0#
#20
1#
#25
0#
1$
b01011101 %
1*
#30
1#
b01011101 +
b01011101 ,
b01011101 -
b01011101 .
#35
0#
b01101010 %
b00000001 (
#40
1#
#45
0#
b11000101 %
b00000010 (
#50
1#
#55
0#
b00000000 %
b00000011 (
#60
1#
#65
0#
b00111110 %
b00000100 (
#70
1#
#75
0#
b10111001 %
b00000101 (
#80
1#
#85
0#
b11111001 %
b00000110 (
#90
1#
#95
0#
b00001010 %
b00000111 (
#100
1#
#105
0#
b01000010 %
b00001000 (
#110
1#
#115
0#
b00001001 (
#120
1#
#125
0#
b11011011 %
b00001010 (
#130
1#
#135
0#
b11100011 %
b00001011 (
#140
1#
#145
0#
b10000110 %
b00001100 (
#150
1#
#155
0#
b10010111 %
b00001101 (
#160
1#
#165
0#
b10010011 %
b00001110 (
#170
1#
#175
0#
b10010010 %
b00001111 (
#180
1#
#185
0#
b00001100 %
b00010000 (
#190
1#
#195
0#
b11010110 %
b00010001 (
#200
1#
#205
0#
b10001011 %
b00010010 (
#210
1#
#215
0#
b01100000 %
b00010011 (
#220
1#
#225
0#
b00100110 %
b00010100 (
#230
1#
#235
0#
b00101011 %
b00010101 (
#240
1#
#245
0#
b10101001 %
b00010110 (
#250
1#
#255
0#
b00111111 %
b00010111 (
#260
1#
#265
0#
b00010111 %
b00011000 (
#270
1#
#275
0#
b01010011 %
b00011001 (
#280
1#
#285
0#
b01101010 %
b00011010 (
#290
1#
#295
0#
b10110111 %
b00011011 (
#300
1#
#305
0#
b10110110 %
b00011100 (
#310
1#
#315
0#
b10101111 %
b00011101 (
#320
1#
#325
0#
b00100010 %
b00011110 (
#330
1#
#335
0#
b10111101 %
b00011111 (
#340
1#
#345
0#
b11100011 %
b00100000 (
#350
1#
#355
0#
b00001001 %
b00100001 (
#360
1#
#365
0#
b10010110 %
b00100010 (
#370
1#
#375
0#
b00111101 %
b00100011 (
#380
1#
#385
0#
b10011100 %
b00100100 (
#390
1#
#395
0#
b10110101 %
b00100101 (
#400
1#
#405
0#
b00100101 %
b00100110 (
#410
1#
#415
0#
b10100100 %
b00100111 (
#420
1#
#425
0#
b10010101 %
b00101000 (
#430
1#
#435
0#
b00110011 %
b00101001 (
#440
1#
#445
0#
b01101100 %
b00101010 (
#450
1#
#455
0#
b10110101 %
b00101011 (
#460
1#
#465
0#
b00101011 %
b00101100 (
#470
1#
#475
0#
b01001001 %
b00101101 (
#480
1#
#485
0#
b10101100 %
b00101110 (
#490
1#
#495
0#
b11111100 %
b00101111 (
#500
1#
#505
0#
b01111111 %
b00110000 (
#510
1#
#515
0#
b11001001 %
b00110001 (
#520
1#
#525
0#
b01011111 %
b00110010 (
#530
1#
#535
0#
b01011000 %
b00110011 (
#540
1#
#545
0#
b11000110 %
b00110100 (
#550
1#
#555
0#
b11011111 %
b00110101 (
#560
1#
#565
0#
b10011000 %
b00110110 (
#570
1#
#575
0#
b00011101 %
b00110111 (
#580
1#
#585
0#
b10001111 %
b00111000 (
#590
1#
#595
0#
b00011100 %
b00111001 (
#600
1#
#605
0#
b11001001 %
b00111010 (
#610
1#
#615
0#
b00111001 %
b00111011 (
#620
1#
#625
0#
b10101001 %
b00111100 (
#630
1#
#635
0#
b10011011 %
b00111101 (
#640
1#
#645
0#
b01111011 %
b00111110 (
#650
1#
#655
0#
b00001110 %
b00111111 (
#660
1#
#665
0#
b11100010 %
b01000000 (
#670
1#
#675
0#
b10100000 %
b01000001 (
#680
1#
#685
0#
b10110000 %
b01000010 (
#690
1#
#695
0#
b11100111 %
b01000011 (
#700
1#
#705
0#
b01001111 %
b01000100 (
#710
1#
#715
0#
b10001100 %
b01000101 (
#720
1#
#725
0#
b00000100 %
b01000110 (
#730
1#
#735
0#
b01001000 %
b01000111 (
#740
1#
#745
0#
b00111110 %
b01001000 (
#750
1#
#755
0#
b10000111 %
b01001001 (
#760
1#
#765
0#
b00110100 %
b01001010 (
#770
1#
#775
0#
b10100110 %
b01001011 (
#780
1#
#785
0#
b01110110 %
b01001100 (
#790
1#
#795
0#
b00001001 %
b01001101 (
#800
1#
#805
0#
b00111000 %
b01001110 (
#810
1#
#815
0#
b00011010 %
b01001111 (
#820
1#
#825
0#
b11100110 %
b01010000 (
#830
1#
#835
0#
b01111000 %
b01010001 (
#840
1#
#845
0#
b00001000 %
b01010010 (
#850
1#
#855
0#
b11011010 %
b01010011 (
#860
1#
#865
0#
b01001001 %
b01010100 (
#870
1#
#875
0#
b10010111 %
b01010101 (
#880
1#
#885
0#
b10000011 %
b01010110 (
#890
1#
#895
0#
b11000010 %
b01010111 (
#900
1#
#905
0#
b00001001 %
b01011000 (
#910
1#
#915
0#
b10010010 %
b01011001 (
#920
1#
#925
0#
b10010100 %
b01011010 (
#930
1#
#935
0#
b10010010 %
b01011011 (
#940
1#
#945
0#
b01011100 %
b01011100 (
#950
1#
#955
0#
b00111101 %
b01011101 (
#960
1#
#965
0#
b00011110 %
b01011110 (
#970
1#
#975
0#
b00000101 %
b01011111 (
#980
1#
#985
0#
b10111000 %
b01100000 (
#990
1#
#995
0#
b00010111 %
b01100001 (
#1000
1#
#1005
0#
b10101101 %
b01100010 (
#1010
1#
#1015
0#
b01011101 %
b01100011 (
#1020
1#
#1025
0#
b10001000 %
b01100100 (
#1030
1#
#1035
0#
b00010010 %
b01100101 (
#1040
1#
#1045
0#
b00111110 %
b01100110 (
#1050
1#
#1055
0#
b00110000 %
b01100111 (
#1060
1#
#1065
0#
b10110110 %
b01101000 (
#1070
1#
#1075
0#
b00100010 %
b01101001 (
#1080
1#
#1085
0#
b01000110 %
b01101010 (
#1090
1#
#1095
0#
b10110010 %
b01101011 (
#1100
1#
#1105
0#
b01110100 %
b01101100 (
#1110
1#
#1115
0#
b00010100 %
b01101101 (
#1120
1#
#1125
0#
b00100111 %
b01101110 (
#1130
1#
#1135
0#
b01101011 %
b01101111 (
#1140
1#
#1145
0#
b01010011 %
b01110000 (
#1150
1#
#1155
0#
b00010100 %
b01110001 (
#1160
1#
#1165
0#
b00100111 %
b01110010 (
#1170
1#
#1175
0#
b11011000 %
b01110011 (
#1180
1#
#1185
0#
b10100101 %
b01110100 (
#1190
1#
#1195
0#
b10110011 %
b01110101 (
#1200
1#
#1205
0#
b00100101 %
b01110110 (
#1210
1#
#1215
0#
b01100100 %
b01110111 (
#1220
1#
#1225
0#
b00111011 %
b01111000 (
#1230
1#
#1235
0#
b11011000 %
b01111001 (
#1240
1#
#1245
0#
b00011101 %
b01111010 (
#1250
1#
#1255
0#
b01110110 %
b01111011 (
#1260
1#
#1265
0#
b11110111 %
b01111100 (
#1270
1#
#1275
0#
b10011110 %
b01111101 (
#1280
1#
#1285
0#
b10000011 %
b01111110 (
#1290
1#
#1295
0#
b11010010 %
b01111111 (
#1300
1#
#1305
0#
b11011001 %
b10000000 (
#1310
1#
#1315
0#
b11011111 %
b10000001 (
#1320
1#
#1325
0#
b00111101 %
b10000010 (
#1330
1#
#1335
0#
b00101010 %
b10000011 (
#1340
1#
#1345
0#
b00100001 %
b10000100 (
#1350
1#
#1355
0#
b00000111 %
b10000101 (
#1360
1#
#1365
0#
b01101101 %
b10000110 (
#1370
1#
#1375
0#
b10001110 %
b10000111 (
#1380
1#
#1385
0#
b11100000 %
b10001000 (
#1390
1#
#1395
0#
b00000001 %
b10001001 (
#1400
1#
#1405
0#
b11111010 %
b10001010 (
#1410
1#
#1415
0#
b11101110 %
b10001011 (
#1420
1#
#1425
0#
b11001100 %
b10001100 (
#1430
1#
#1435
0#
b11000010 %
b10001101 (
#1440
1#
#1445
0#
b01111110 %
b10001110 (
#1450
1#
#1455
0#
b00110011 %
b10001111 (
#1460
1#
#1465
0#
b01000000 %
b10010000 (
#1470
1#
#1475
0#
b10101011 %
b10010001 (
#1480
1#
#1485
0#
b01000101 %
b10010010 (
#1490
1#
#1495
0#
b11011100 %
b10010011 (
#1500
1#
#1505
0#
b01000101 %
b10010100 (
#1510
1#
#1515
0#
b11101110 %
b10010101 (
#1520
1#
#1525
0#
b01110001 %
b10010110 (
#1530
1#
#1535
0#
b00011001 %
b10010111 (
#1540
1#
#1545
0#
b01000011 %
b10011000 (
#1550
1#
#1555
0#
b10000111 %
b10011001 (
#1560
1#
#1565
0#
b11011011 %
b10011010 (
#1570
1#
#1575
0#
b01010110 %
b10011011 (
#1580
1#
#1585
0#
b01000001 %
b10011100 (
#1590
1#
#1595
0#
b11100101 %
b10011101 (
#1600
1#
#1605
0#
b00110000 %
b10011110 (
#1610
1#
#1615
0#
b01010111 %
b10011111 (
#1620
1#
#1625
0#
b11110101 %
b10100000 (
#1630
1#
#1635
0#
b10000001 %
b10100001 (
#1640
1#
#1645
0#
b00000101 %
b10100010 (
#1650
1#
#1655
0#
b00101101 %
b10100011 (
#1660
1#
#1665
0#
b01111110 %
b10100100 (
#1670
1#
#1675
0#
b10000000 %
b10100101 (
#1680
1#
#1685
0#
b11001101 %
b10100110 (
#1690
1#
#1695
0#
b00111100 %
b10100111 (
#1700
1#
#1705
0#
b10010111 %
b10101000 (
#1710
1#
#1715
0#
b00001000 %
b10101001 (
#1720
1#
#1725
0#
b10010100 %
b10101010 (
#1730
1#
#1735
0#
b01100110 %
b10101011 (
#1740
1#
#1745
0#
b11110000 %
b10101100 (
#1750
1#
#1755
0#
b01100011 %
b10101101 (
#1760
1#
#1765
0#
b01000010 %
b10101110 (
#1770
1#
#1775
0#
b10111000 %
b10101111 (
#1780
1#
#1785
0#
b01101100 %
b10110000 (
#1790
1#
#1795
0#
b10000011 %
b10110001 (
#1800
1#
#1805
0#
b11000100 %
b10110010 (
#1810
1#
#1815
0#
b11110011 %
b10110011 (
#1820
1#
#1825
0#
b10110110 %
b10110100 (
#1830
1#
#1835
0#
b01100000 %
b10110101 (
#1840
1#
#1845
0#
b10111001 %
b10110110 (
#1850
1#
#1855
0#
b01100000 %
b10110111 (
#1860
1#
#1865
0#
b01011010 %
b10111000 (
#1870
1#
#1875
0#
b10100111 %
b10111001 (
#1880
1#
#1885
0#
b11010110 %
b10111010 (
#1890
1#
#1895
0#
b11110011 %
b10111011 (
#1900
1#
#1905
0#
b00001000 %
b10111100 (
#1910
1#
#1915
0#
b10001110 %
b10111101 (
#1920
1#
#1925
0#
b11011100 %
b10111110 (
#1930
1#
#1935
0#
b00010110 %
b10111111 (
#1940
1#
#1945
0#
b11101010 %
b11000000 (
#1950
1#
#1955
0#
b10111000 %
b11000001 (
#1960
1#
#1965
0#
b00010101 %
b11000010 (
#1970
1#
#1975
0#
b11100010 %
b11000011 (
#1980
1#
#1985
0#
b10010101 %
b11000100 (
#1990
1#
#1995
0#
b11101111 %
b11000101 (
#2000
1#
#2005
0#
b00100010 %
b11000110 (
#2010
1#
#2015
0#
b10110110 %
b11000111 (
#2020
1#
#2025
0#
b00101000 %
b11001000 (
#2030
1#
#2035
0#
b01001000 %
b11001001 (
#2040
1#
#2045
0#
b10101110 %
b11001010 (
#2050
1#
#2055
0#
b01000000 %
b11001011 (
#2060
1#
#2065
0#
b11110100 %
b11001100 (
#2070
1#
#2075
0#
b11010011 %
b11001101 (
#2080
1#
#2085
0#
b01100010 %
b11001110 (
#2090
1#
#2095
0#
b11111110 %
b11001111 (
#2100
1#
#2105
0#
b01011100 %
b11010000 (
#2110
1#
#2115
0#
b01001110 %
b11010001 (
#2120
1#
#2125
0#
b10110100 %
b11010010 (
#2130
1#
#2135
0#
b11111110 %
b11010011 (
#2140
1#
#2145
0#
b00010001 %
b11010100 (
#2150
1#
#2155
0#
b01010110 %
b11010101 (
#2160
1#
#2165
0#
b00011101 %
b11010110 (
#2170
1#
#2175
0#
b01011100 %
b11010111 (
#2180
1#
#2185
0#
b01000011 %
b11011000 (
#2190
1#
#2195
0#
b00001110 %
b11011001 (
#2200
1#
#2205
0#
b01011111 %
b11011010 (
#2210
1#
#2215
0#
b11000010 %
b11011011 (
#2220
1#
#2225
0#
b10011100 %
b11011100 (
#2230
1#
#2235
0#
b01010110 %
b11011101 (
#2240
1#
#2245
0#
b10001011 %
b11011110 (
#2250
1#
#2255
0#
b10011111 %
b11011111 (
#2260
1#
#2265
0#
b01011001 %
b11100000 (
#2270
1#
#2275
0#
b10000110 %
b11100001 (
#2280
1#
#2285
0#
b11001011 %
b11100010 (
#2290
1#
#2295
0#
b00000001 %
b11100011 (
#2300
1#
#2305
0#
b11010010 %
b11100100 (
#2310
1#
#2315
0#
b01010101 %
b11100101 (
#2320
1#
#2325
0#
b11001010 %
b11100110 (
#2330
1#
#2335
0#
b11100110 %
b11100111 (
#2340
1#
#2345
0#
b01010000 %
b11101000 (
#2350
1#
#2355
0#
b10000010 %
b11101001 (
#2360
1#
#2365
0#
b00011011 %
b11101010 (
#2370
1#
#2375
0#
b00101011 %
b11101011 (
#2380
1#
#2385
0#
b01100100 %
b11101100 (
#2390
1#
#2395
0#
b01111100 %
b11101101 (
#2400
1#
#2405
0#
b00010011 %
b11101110 (
#2410
1#
#2415
0#
b00100011 %
b11101111 (
#2420
1#
#2425
0#
b10010010 %
b11110000 (
#2430
1#
#2435
0#
b00100011 %
b11110001 (
#2440
1#
#2445
0#
b01111000 %
b11110010 (
#2450
1#
#2455
0#
b00011101 %
b11110011 (
#2460
1#
#2465
0#
b10111110 %
b11110100 (
#2470
1#
#2475
0#
b10010001 %
b11110101 (
#2480
1#
#2485
0#
b11001011 %
b11110110 (
#2490
1#
#2495
0#
b11101100 %
b11110111 (
#2500
1#
#2505
0#
b01000101 %
b11111000 (
#2510
1#
#2515
0#
b11110010 %
b11111001 (
#2520
1#
#2525
0#
b01000011 %
b11111010 (
#2530
1#
#2535
0#
b00111110 %
b11111011 (
#2540
1#
#2545
0#
b10110010 %
b11111100 (
#2550
1#
#2555
0#
b00100111 %
b11111101 (
#2560
1#
#2565
0#
b11010010 %
b11111110 (
#2570
1#
#2575
0#
b10101000 %
b11111111 (
#2580
1#
#2585
0#
1)
#2590
1#
#2595
0#
b00000001 &
b01101010 +
b01101010 -
#2600
1#
#2605
0#
b00000010 &
b11000101 +
b11000101 -
#2610
1#
#2615
0#
b00000011 &
b00000000 +
b00000000 -
#2620
1#
#2625
0#
b00000100 &
b00111110 +
b00111110 -
#2630
1#
#2635
0#
b00000101 &
b10111001 +
b10111001 -
#2640
1#
#2645
0#
b00000110 &
b11111001 +
b11111001 -
#2650
1#
#2655
0#
b00000111 &
b00001010 +
b00001010 -
#2660
1#
#2665
0#
b00001000 &
b01000010 +
b01000010 -
#2670
1#
#2675
0#
b00001001 &
#2680
1#
#2685
0#
b00001010 &
b11011011 +
b11011011 -
#2690
1#
#2695
0#
b00001011 &
b11100011 +
b11100011 -
#2700
1#
#2705
0#
b00001100 &
b10000110 +
b10000110 -
#2710
1#
#2715
0#
b00001101 &
b10010111 +
b10010111 -
#2720
1#
#2725
0#
b00001110 &
b10010011 +
b10010011 -
#2730
1#
#2735
0#
b00001111 &
b10010010 +
b10010010 -
#2740
1#
#2745
0#
b00010000 &
b00001100 +
b00001100 -
#2750
1#
#2755
0#
b00010001 &
b11010110 +
b11010110 -
#2760
1#
#2765
0#
b00010010 &
b10001011 +
b10001011 -
#2770
1#
#2775
0#
b00010011 &
b01100000 +
b01100000 -
#2780
1#
#2785
0#
b00010100 &
b00100110 +
b00100110 -
#2790
1#
#2795
0#
b00010101 &
b00101011 +
b00101011 -
#2800
1#
#2805
0#
b00010110 &
b10101001 +
b10101001 -
#2810
1#
#2815
0#
b00010111 &
b00111111 +
b00111111 -
#2820
1#
#2825
0#
b00011000 &
b00010111 +
b00010111 -
#2830
1#
#2835
0#
b00011001 &
b01010011 +
b01010011 -
#2840
1#
#2845
0#
b00011010 &
b01101010 +
b01101010 -
#2850
1#
#2855
0#
b00011011 &
b10110111 +
b10110111 -
#2860
1#
#2865
0#
b00011100 &
b10110110 +
b10110110 -
#2870
1#
#2875
0#
b00011101 &
b10101111 +
b10101111 -
#2880
1#
#2885
0#
b00011110 &
b00100010 +
b00100010 -
#2890
1#
#2895
0#
b00011111 &
b10111101 +
b10111101 -
#2900
1#
#2905
0#
b00100000 &
b11100011 +
b11100011 -
#2910
1#
#2915
0#
b00100001 &
b00001001 +
b00001001 -
#2920
1#
#2925
0#
b00100010 &
b10010110 +
b10010110 -
#2930
1#
#2935
0#
b00100011 &
b00111101 +
b00111101 -
#2940
1#
#2945
0#
b00100100 &
b10011100 +
b10011100 -
#2950
1#
#2955
0#
b00100101 &
b10110101 +
b10110101 -
#2960
1#
#2965
0#
b00100110 &
b00100101 +
b00100101 -
#2970
1#
#2975
0#
b00100111 &
b10100100 +
b10100100 -
#2980
1#
#2985
0#
b00101000 &
b10010101 +
b10010101 -
#2990
1#
#2995
0#
b00101001 &
b00110011 +
b00110011 -
#3000
1#
#3005
0#
b00101010 &
b01101100 +
b01101100 -
#3010
1#
#3015
0#
b00101011 &
b10110101 +
b10110101 -
#3020
1#
#3025
0#
b00101100 &
b00101011 +
b00101011 -
#3030
1#
#3035
0#
b00101101 &
b01001001 +
b01001001 -
#3040
1#
#3045
0#
b00101110 &
b10101100 +
b10101100 -
#3050
1#
#3055
0#
b00101111 &
b11111100 +
b11111100 -
#3060
1#
#3065
0#
b00110000 &
b01111111 +
b01111111 -
#3070
1#
#3075
0#
b00110001 &
b11001001 +
b11001001 -
#3080
1#
#3085
0#
b00110010 &
b01011111 +
b01011111 -
#3090
1#
#3095
0#
b00110011 &
b01011000 +
b01011000 -
#3100
1#
#3105
0#
b00110100 &
b11000110 +
b11000110 -
#3110
1#
#3115
0#
b00110101 &
b11011111 +
b11011111 -
#3120
1#
#3125
0#
b00110110 &
b10011000 +
b10011000 -
#3130
1#
#3135
0#
b00110111 &
b00011101 +
b00011101 -
#3140
1#
#3145
0#
b00111000 &
b10001111 +
b10001111 -
#3150
1#
#3155
0#
b00111001 &
b00011100 +
b00011100 -
#3160
1#
#3165
0#
b00111010 &
b11001001 +
b11001001 -
#3170
1#
#3175
0#
b00111011 &
b00111001 +
b00111001 -
#3180
1#
#3185
0#
b00111100 &
b10101001 +
b10101001 -
#3190
1#
#3195
0#
b00111101 &
b10011011 +
b10011011 -
#3200
1#
#3205
0#
b00111110 &
b01111011 +
b01111011 -
#3210
1#
#3215
0#
b00111111 &
b00001110 +
b00001110 -
#3220
1#
#3225
0#
b01000000 &
b11100010 +
b11100010 -
#3230
1#
#3235
0#
b01000001 &
b10100000 +
b10100000 -
#3240
1#
#3245
0#
b01000010 &
b10110000 +
b10110000 -
#3250
1#
#3255
0#
b01000011 &
b11100111 +
b11100111 -
#3260
1#
#3265
0#
b01000100 &
b01001111 +
b01001111 -
#3270
1#
#3275
0#
b01000101 &
b10001100 +
b10001100 -
#3280
1#
#3285
0#
b01000110 &
b00000100 +
b00000100 -
#3290
1#
#3295
0#
b01000111 &
b01001000 +
b01001000 -
#3300
1#
#3305
0#
b01001000 &
b00111110 +
b00111110 -
#3310
1#
#3315
0#
b01001001 &
b10000111 +
b10000111 -
#3320
1#
#3325
0#
b01001010 &
b00110100 +
b00110100 -
#3330
1#
#3335
0#
b01001011 &
b10100110 +
b10100110 -
#3340
1#
#3345
0#
b01001100 &
b01110110 +
b01110110 -
#3350
1#
#3355
0#
b01001101 &
b00001001 +
b00001001 -
#3360
1#
#3365
0#
b01001110 &
b00111000 +
b00111000 -
#3370
1#
#3375
0#
b01001111 &
b00011010 +
b00011010 -
#3380
1#
#3385
0#
b01010000 &
b11100110 +
b11100110 -
#3390
1#
#3395
0#
b01010001 &
b01111000 +
b01111000 -
#3400
1#
#3405
0#
b01010010 &
b00001000 +
b00001000 -
#3410
1#
#3415
0#
b01010011 &
b11011010 +
b11011010 -
#3420
1#
#3425
0#
b01010100 &
b01001001 +
b01001001 -
#3430
1#
#3435
0#
b01010101 &
b10010111 +
b10010111 -
#3440
1#
#3445
0#
b01010110 &
b10000011 +
b10000011 -
#3450
1#
#3455
0#
b01010111 &
b11000010 +
b11000010 -
#3460
1#
#3465
0#
b01011000 &
b00001001 +
b00001001 -
#3470
1#
#3475
0#
b01011001 &
b10010010 +
b10010010 -
#3480
1#
#3485
0#
b01011010 &
b10010100 +
b10010100 -
#3490
1#
#3495
0#
b01011011 &
b10010010 +
b10010010 -
#3500
1#
#3505
0#
b01011100 &
b01011100 +
b01011100 -
#3510
1#
#3515
0#
b01011101 &
b00111101 +
b00111101 -
#3520
1#
#3525
0#
b01011110 &
b00011110 +
b00011110 -
#3530
1#
#3535
0#
b01011111 &
b00000101 +
b00000101 -
#3540
1#
#3545
0#
b01100000 &
b10111000 +
b10111000 -
#3550
1#
#3555
0#
b01100001 &
b00010111 +
b00010111 -
#3560
1#
#3565
0#
b01100010 &
b10101101 +
b10101101 -
#3570
1#
#3575
0#
b01100011 &
b01011101 +
b01011101 -
#3580
1#
#3585
0#
b01100100 &
b10001000 +
b10001000 -
#3590
1#
#3595
0#
b01100101 &
b00010010 +
b00010010 -
#3600
1#
#3605
0#
b01100110 &
b00111110 +
b00111110 -
#3610
1#
#3615
0#
b01100111 &
b00110000 +
b00110000 -
#3620
1#
#3625
0#
b01101000 &
b10110110 +
b10110110 -
#3630
1#
#3635
0#
b01101001 &
b00100010 +
b00100010 -
#3640
1#
#3645
0#
b01101010 &
b01000110 +
b01000110 -
#3650
1#
#3655
0#
b01101011 &
b10110010 +
b10110010 -
#3660
1#
#3665
0#
b01101100 &
b01110100 +
b01110100 -
#3670
1#
#3675
0#
b01101101 &
b00010100 +
b00010100 -
#3680
1#
#3685
0#
b01101110 &
b00100111 +
b00100111 -
#3690
1#
#3695
0#
b01101111 &
b01101011 +
b01101011 -
#3700
1#
#3705
0#
b01110000 &
b01010011 +
b01010011 -
#3710
1#
#3715
0#
b01110001 &
b00010100 +
b00010100 -
#3720
1#
#3725
0#
b01110010 &
b00100111 +
b00100111 -
#3730
1#
#3735
0#
b01110011 &
b11011000 +
b11011000 -
#3740
1#
#3745
0#
b01110100 &
b10100101 +
b10100101 -
#3750
1#
#3755
0#
b01110101 &
b10110011 +
b10110011 -
#3760
1#
#3765
0#
b01110110 &
b00100101 +
b00100101 -
#3770
1#
#3775
0#
b01110111 &
b01100100 +
b01100100 -
#3780
1#
#3785
0#
b01111000 &
b00111011 +
b00111011 -
#3790
1#
#3795
0#
b01111001 &
b11011000 +
b11011000 -
#3800
1#
#3805
0#
b01111010 &
b00011101 +
b00011101 -
#3810
1#
#3815
0#
b01111011 &
b01110110 +
b01110110 -
#3820
1#
#3825
0#
b01111100 &
b11110111 +
b11110111 -
#3830
1#
#3835
0#
b01111101 &
b10011110 +
b10011110 -
#3840
1#
#3845
0#
b01111110 &
b10000011 +
b10000011 -
#3850
1#
#3855
0#
b01111111 &
b11010010 +
b11010010 -
#3860
1#
#3865
0#
b10000000 &
b11011001 +
b11011001 -
#3870
1#
#3875
0#
b10000001 &
b11011111 +
b11011111 -
#3880
1#
#3885
0#
b10000010 &
b00111101 +
b00111101 -
#3890
1#
#3895
0#
b10000011 &
b00101010 +
b00101010 -
#3900
1#
#3905
0#
b10000100 &
b00100001 +
b00100001 -
#3910
1#
#3915
0#
b10000101 &
b00000111 +
b00000111 -
#3920
1#
#3925
0#
b10000110 &
b01101101 +
b01101101 -
#3930
1#
#3935
0#
b10000111 &
b10001110 +
b10001110 -
#3940
1#
#3945
0#
b10001000 &
b11100000 +
b11100000 -
#3950
1#
#3955
0#
b10001001 &
b00000001 +
b00000001 -
#3960
1#
#3965
0#
b10001010 &
b11111010 +
b11111010 -
#3970
1#
#3975
0#
b10001011 &
b11101110 +
b11101110 -
#3980
1#
#3985
0#
b10001100 &
b11001100 +
b11001100 -
#3990
1#
#3995
0#
b10001101 &
b11000010 +
b11000010 -
#4000
1#
#4005
0#
b10001110 &
b01111110 +
b01111110 -
#4010
1#
#4015
0#
b10001111 &
b00110011 +
b00110011 -
#4020
1#
#4025
0#
b10010000 &
b01000000 +
b01000000 -
#4030
1#
#4035
0#
b10010001 &
b10101011 +
b10101011 -
#4040
1#
#4045
0#
b10010010 &
b01000101 +
b01000101 -
#4050
1#
#4055
0#
b10010011 &
b11011100 +
b11011100 -
#4060
1#
#4065
0#
b10010100 &
b01000101 +
b01000101 -
#4070
1#
#4075
0#
b10010101 &
b11101110 +
b11101110 -
#4080
1#
#4085
0#
b10010110 &
b01110001 +
b01110001 -
#4090
1#
#4095
0#
b10010111 &
b00011001 +
b00011001 -
#4100
1#
#4105
0#
b10011000 &
b01000011 +
b01000011 -
#4110
1#
#4115
0#
b10011001 &
b10000111 +
b10000111 -
#4120
1#
#4125
0#
b10011010 &
b11011011 +
b11011011 -
#4130
1#
#4135
0#
b10011011 &
b01010110 +
b01010110 -
#4140
1#
#4145
0#
b10011100 &
b01000001 +
b01000001 -
#4150
1#
#4155
0#
b10011101 &
b11100101 +
b11100101 -
#4160
1#
#4165
0#
b10011110 &
b00110000 +
b00110000 -
#4170
1#
#4175
0#
b10011111 &
b01010111 +
b01010111 -
#4180
1#
#4185
0#
b10100000 &
b11110101 +
b11110101 -
#4190
1#
#4195
0#
b10100001 &
b10000001 +
b10000001 -
#4200
1#
#4205
0#
b10100010 &
b00000101 +
b00000101 -
#4210
1#
#4215
0#
b10100011 &
b00101101 +
b00101101 -
#4220
1#
#4225
0#
b10100100 &
b01111110 +
b01111110 -
#4230
1#
#4235
0#
b10100101 &
b10000000 +
b10000000 -
#4240
1#
#4245
0#
b10100110 &
b11001101 +
b11001101 -
#4250
1#
#4255
0#
b10100111 &
b00111100 +
b00111100 -
#4260
1#
#4265
0#
b10101000 &
b10010111 +
b10010111 -
#4270
1#
#4275
0#
b10101001 &
b00001000 +
b00001000 -
#4280
1#
#4285
0#
b10101010 &
b10010100 +
b10010100 -
#4290
1#
#4295
0#
b10101011 &
b01100110 +
b01100110 -
#4300
1#
#4305
0#
b10101100 &
b11110000 +
b11110000 -
#4310
1#
#4315
0#
b10101101 &
b01100011 +
b01100011 -
#4320
1#
#4325
0#
b10101110 &
b01000010 +
b01000010 -
#4330
1#
#4335
0#
b10101111 &
b10111000 +
b10111000 -
#4340
1#
#4345
0#
b10110000 &
b01101100 +
b01101100 -
#4350
1#
#4355
0#
b10110001 &
b10000011 +
b10000011 -
#4360
1#
#4365
0#
b10110010 &
b11000100 +
b11000100 -
#4370
1#
#4375
0#
b10110011 &
b11110011 +
b11110011 -
#4380
1#
#4385
0#
b10110100 &
b10110110 +
b10110110 -
#4390
1#
#4395
0#
b10110101 &
b01100000 +
b01100000 -
#4400
1#
#4405
0#
b10110110 &
b10111001 +
b10111001 -
#4410
1#
#4415
0#
b10110111 &
b01100000 +
b01100000 -
#4420
1#
#4425
0#
b10111000 &
b01011010 +
b01011010 -
#4430
1#
#4435
0#
b10111001 &
b10100111 +
b10100111 -
#4440
1#
#4445
0#
b10111010 &
b11010110 +
b11010110 -
#4450
1#
#4455
0#
b10111011 &
b11110011 +
b11110011 -
#4460
1#
#4465
0#
b10111100 &
b00001000 +
b00001000 -
#4470
1#
#4475
0#
b10111101 &
b10001110 +
b10001110 -
#4480
1#
#4485
0#
b10111110 &
b11011100 +
b11011100 -
#4490
1#
#4495
0#
b10111111 &
b00010110 +
b00010110 -
#4500
1#
#4505
0#
b11000000 &
b11101010 +
b11101010 -
